Dimash Alchinbayev - Forecasting Conventional Hydroelectric Power Generation in the US using NNETAR
…
plants %>%                              
  group_by(Year, Month) %>%
  summarise(Count = n_distinct(EHA_PtID)) %>% 
  mutate(Date = yearmonth(paste(Year, Month))) %>% 
  arrange(Date) |>
  as_tsibble(index = Date) -> plants2

`summarise()` has grouped output by 'Year'. You can override using the
`.groups` argument.

Code

plants2

# A tsibble: 240 x 4 [1M]
# Groups:    Year [20]
    Year Month Count     Date
   <dbl> <chr> <int>    <mth>
 1  2003 JAN    1386 2003 Jan
 2  2003 FEB    1386 2003 Feb
 3  2003 MAR    1386 2003 Mar
 4  2003 APR    1386 2003 Apr
 5  2003 MAY    1386 2003 May
 6  2003 JUN    1386 2003 Jun
 7  2003 JUL    1386 2003 Jul
 8  2003 AUG    1386 2003 Aug
 9  2003 SEP    1386 2003 Sep
10  2003 OCT    1386 2003 Oct
# … with 230 more rows
…
ℹ Use `spec()` to retrieve the full column specification for this data.
ℹ Specify the column types or set `show_col_types = FALSE` to quiet this message.

Code

prcpt |>
  mutate(date = seq(as.Date("2000-01-01"),
                    as.Date("2023-07-01"),
                    by = "month"),
         Date = yearmonth(date)) |>
  as_tsibble(index = Date) |>
  select(Date, Value) -> prcpt2
prcpt2

# A tsibble: 283 x 2 [1M]
       Date Value
      <mth> <dbl>
 1 2000 Jan  2.14
 2 2000 Feb  2.12
 3 2000 Mar  2.44
 4 2000 Apr  2.32
 5 2000 May  2.66
 6 2000 Jun  3.45
 7 2000 Jul  2.3 
 8 2000 Aug  1.91
 9 2000 Sep  2.18
10 2000 Oct  2.26
# … with 273 more rows
…
ℹ Use `spec()` to retrieve the full column specification for this data.
ℹ Specify the column types or set `show_col_types = FALSE` to quiet this message.

Code

plants3 %>%    
  select(EIA_ID, plant, year, month) %>% 
  group_by(year, month) %>%
  summarise(Count = n_distinct(plant), .groups = "drop") %>% 
  mutate(Date = yearmonth(paste(year, month))) %>% 
  arrange(Date) |>
  as_tsibble(index = Date) -> plants3
plants3

# A tsibble: 240 x 4 [1M]
    year month Count     Date
   <dbl> <chr> <int>    <mth>
 1  2001 Jan    1337 2001 Jan
 2  2001 Feb    1337 2001 Feb
 3  2001 Mar    1337 2001 Mar
 4  2001 Apr    1337 2001 Apr
 5  2001 May    1337 2001 May
 6  2001 Jun    1337 2001 Jun
 7  2001 Jul    1337 2001 Jul
 8  2001 Aug    1337 2001 Aug
 9  2001 Sep    1337 2001 Sep
10  2001 Oct    1337 2001 Oct
# … with 230 more rows

Code

which(plants3$year==2003)[1]

[1] 25

Code

plants3[1:24,] |>
  bind_rows(plants2) |>
  select(Count, Date) -> plants_t
plants_t

# A tsibble: 264 x 2 [1M]
   Count     Date
   <int>    <mth>
 1  1337 2001 Jan
 2  1337 2001 Feb
 3  1337 2001 Mar
 4  1337 2001 Apr
 5  1337 2001 May
 6  1337 2001 Jun
 7  1337 2001 Jul
 8  1337 2001 Aug
 9  1337 2001 Sep
10  1337 2001 Oct
# … with 254 more rows
…
