Dimash Alchinbayev - Boston Renters
…
Code

rents3 %>% 
  group_by(SERIAL) %>% 
  distinct(SERIAL, hhsize, costbur, ami) %>% 
  filter(costbur!="Not CB" & ami!=0)

# A tibble: 713 × 4
# Groups:   SERIAL [713]
   SERIAL hhsize costbur       ami
    <dbl>  <dbl> <chr>       <dbl>
 1 641897      1 Severely CB     1
 2 636155      6 Severely CB     1
 3 633351      2 CB              1
 4 642035      1 Severely CB     1
 5 633475      2 Severely CB     1
 6 642054      2 CB              1
 7 623095      3 Severely CB     1
 8 633640      3 Severely CB     1
 9 623115      2 Severely CB     1
10 642183      1 CB              1
# … with 703 more rows
…
