Dimash Alchinbayev - Code For When Do Economic Snactions Work?
…
Descriptive Statistics  
MDLogitFull$GDP_san  
N: 465  

                  Mean   Std.Dev   Median    Min        Max
------------- -------- --------- -------- ------ ----------
      GDP_san   326.34   1248.27    30.79   0.31   14121.06

Code

Model_data2 %>% 
  dplyr::select(sanctioned_state, GDP_san) %>% 
  arrange(desc(GDP_san))

# A tibble: 465 × 2
   sanctioned_state GDP_san
   <chr>              <dbl>
 1 United States     14121.
 2 United States     14121.
 3 United States     14121.
 4 United States      6232.
 5 United States      5639.
 6 France             2110.
 7 Japan              1896.
 8 France             1837.
 9 France             1734.
10 France             1734.
# … with 455 more rows
…
